…
```R
tibble::as.tibble(SpecimenData(taxon = "Elasmobranchii", geo = "Peru", seq = "combined"))
```

```
# A tibble: 47 x 80
       processid sampleid recordID catalognum fieldnum      institution_storing collection_code      bin_uri phylum_taxID phylum_name class_taxID
          <fctr>   <fctr>    <int>     <fctr>   <fctr>                   <fctr>           <lgl>       <fctr>        <int>      <fctr>       <int>
 1 ANGBF10913-15 KJ146022  5651960            KJ146022 Mined from GenBank, NCBI              NA BOLD:AAB0473           18    Chordata       34196
 2 ANGBF10914-15 KJ146023  5651961            KJ146023 Mined from GenBank, NCBI              NA BOLD:AAB0473           18    Chordata       34196
 3 ANGBF10915-15 KJ146024  5651962            KJ146024 Mined from GenBank, NCBI              NA BOLD:AAB0473           18    Chordata       34196
 4 ANGBF10916-15 KJ146025  5651963            KJ146025 Mined from GenBank, NCBI              NA BOLD:AAB0473           18    Chordata       34196
 5 ANGBF10917-15 KJ146026  5651964            KJ146026 Mined from GenBank, NCBI              NA BOLD:AAB0473           18    Chordata       34196
 6 ANGBF11015-15 KJ146027  5652062            KJ146027 Mined from GenBank, NCBI              NA BOLD:ACE6212           18    Chordata       34196
 7 ANGBF11043-15 KJ146021  5652090            KJ146021 Mined from GenBank, NCBI              NA BOLD:ABZ0850           18    Chordata       34196
 8 ANGBF11064-15 KJ146044  5652111            KJ146044 Mined from GenBank, NCBI              NA BOLD:AAA7096           18    Chordata       34196
 9 ANGBF11065-15 KJ146043  5652112            KJ146043 Mined from GenBank, NCBI              NA BOLD:AAA7096           18    Chordata       34196
10 ANGBF11066-15 KJ146042  5652113            KJ146042 Mined from GenBank, NCBI              NA BOLD:AAA7096           18    Chordata       34196
# ... with 37 more rows, and 69 more variables: class_name <fctr>, order_taxID <int>, order_name <fctr>, family_taxID <int>, family_name <fctr>,
#   subfamily_taxID <lgl>, subfamily_name <lgl>, genus_taxID <int>, genus_name <fctr>, species_taxID <int>, species_name <fctr>, subspecies_taxID <lgl>,
#   subspecies_name <lgl>, identification_provided_by <fctr>, identification_method <lgl>, identification_reference <fctr>, tax_note <lgl>,
#   voucher_status <lgl>, tissue_type <lgl>, collection_event_id <lgl>, collectors <fctr>, collectiondate_start <lgl>, collectiondate_end <lgl>,
#   collectiontime <lgl>, collection_note <lgl>, site_code <lgl>, sampling_protocol <fctr>, lifestage <lgl>, sex <lgl>, reproduction <lgl>,
#   habitat <fctr>, associated_specimens <lgl>, associated_taxa <lgl>, extrainfo <fctr>, notes <fctr>, lat <dbl>, lon <dbl>, coord_source <lgl>,
#   coord_accuracy <lgl>, elev <lgl>, depth <int>, elev_accuracy <lgl>, depth_accuracy <lgl>, country <fctr>, province_state <fctr>, region <fctr>,
#   sector <fctr>, exactsite <lgl>, image_ids <lgl>, image_urls <lgl>, media_descriptors <lgl>, captions <lgl>, copyright_holders <lgl>,
#   copyright_years <lgl>, copyright_licenses <lgl>, copyright_institutions <lgl>, photographers <lgl>, sequenceID <int>, markercode <fctr>,
…
